<?xml version="1.0" encoding="utf-8"?>
<!-- Generator: Adobe Illustrator 22.1.0, SVG Export Plug-In . SVG Version: 6.00 Build 0)  -->
<svg xmlns:xlink="http://www.w3.org/1999/xlink" version="1.1" id="Layer_1" xmlns="http://www.w3.org/2000/svg" x="0px" y="0px"
	 viewBox="0 0 997.8 561.3" style="enable-background:new 0 0 997.8 561.3;" xml:space="preserve">
<style type="text/css">
	.st0{opacity:0.86;}
	.st1{fill:#52C7B8;}
	.st2{opacity:0.96;}
	.st3{fill:#A1887F;}
	.st4{opacity:0.81;}
	.st5{fill:#BE9C91;}
	.st6{fill:url(#SVGID_1_);}
	.st7{fill:url(#SVGID_2_);}
	.st8{fill:url(#SVGID_3_);}
	.st9{fill:url(#SVGID_4_);}
	.st10{fill:url(#SVGID_5_);}
	.st11{fill:url(#SVGID_6_);}
	.st12{fill:url(#SVGID_7_);}
	.st13{fill:url(#SVGID_8_);}
	.st14{fill:url(#SVGID_9_);}
	.st15{fill:url(#SVGID_10_);}
	.st16{fill:url(#SVGID_11_);}
	.st17{fill:url(#SVGID_12_);}
	.st18{fill:url(#SVGID_13_);}
	.st19{fill:url(#SVGID_14_);}
	.st20{fill:url(#SVGID_15_);}
	.st21{fill:url(#SVGID_16_);}
	.st22{fill:url(#SVGID_17_);}
	.st23{fill:url(#SVGID_18_);}
	.st24{fill:url(#SVGID_19_);}
	.st25{fill:url(#SVGID_20_);}
	.st26{fill:url(#SVGID_21_);}
	.st27{fill:url(#SVGID_22_);}
	.st28{fill:url(#SVGID_23_);}
	.st29{fill:url(#SVGID_24_);}
	.st30{fill:url(#SVGID_25_);}
	.st31{fill:url(#SVGID_26_);}
	.st32{fill:url(#SVGID_27_);}
	.st33{fill:url(#SVGID_28_);}
	.st34{fill:url(#SVGID_29_);}
	.st35{fill:url(#SVGID_30_);}
	.st36{fill:url(#SVGID_31_);}
	.st37{fill:url(#SVGID_32_);}
	.st38{fill:url(#SVGID_33_);}
	.st39{fill:url(#SVGID_34_);}
	.st40{fill:url(#SVGID_35_);}
	.st41{fill:url(#SVGID_36_);}
	.st42{fill:url(#SVGID_37_);}
	.st43{fill:url(#SVGID_38_);}
	.st44{fill:url(#SVGID_39_);}
	.st45{fill:url(#SVGID_40_);}
	.st46{fill:url(#SVGID_41_);}
	.st47{fill:url(#SVGID_42_);}
	.st48{fill:url(#SVGID_43_);}
	.st49{fill:url(#SVGID_44_);}
	.st50{fill:url(#SVGID_45_);}
	.st51{fill:url(#SVGID_46_);}
	.st52{fill:url(#SVGID_47_);}
	.st53{fill:url(#SVGID_48_);}
	.st54{fill:url(#SVGID_49_);}
	.st55{fill:url(#SVGID_50_);}
	.st56{fill:url(#SVGID_51_);}
	.st57{fill:url(#SVGID_52_);}
	.st58{fill:#F0F8FF;}
	.st59{fill:#8D6E63;}
	.st60{fill:#191919;}
	.st61{fill:url(#SVGID_53_);}
	.st62{fill:#3A3936;}
	.st63{fill:url(#SVGID_54_);}
	.st64{fill:url(#SVGID_55_);}
	.st65{fill:url(#SVGID_56_);}
	.st66{fill:url(#SVGID_57_);}
	.st67{fill:#010103;}
	.st68{fill:url(#SVGID_58_);}
	.st69{clip-path:url(#SVGID_60_);}
	.st70{opacity:0.81;fill:#3829FF;}
	.st71{fill:url(#SVGID_61_);}
	.st72{fill:#FFFFFF;}
	.st73{filter:url(#Adobe_OpacityMaskFilter);}
	.st74{filter:url(#Adobe_OpacityMaskFilter_1_);}
	.st75{mask:url(#SVGID_62_);fill:url(#SVGID_63_);}
	.st76{fill:url(#SVGID_64_);}
	.st77{fill:url(#SVGID_65_);}
	.st78{fill:#1D1D1B;}
	.st79{fill:#FF0000;}
	.st80{fill:url(#SVGID_66_);}
	.st81{fill:url(#SVGID_67_);}
	.st82{fill:url(#SVGID_68_);}
	.st83{fill:#00796B;}
	.st84{fill:url(#SVGID_69_);}
	.st85{fill:#009688;}
	.st86{fill:url(#SVGID_70_);}
	.st87{fill:url(#SVGID_71_);}
	.st88{fill:url(#SVGID_72_);}
	.st89{fill:url(#SVGID_73_);}
	.st90{fill:url(#SVGID_74_);}
	.st91{fill:#161616;}
	.st92{fill:url(#SVGID_75_);}
	.st93{fill:url(#SVGID_76_);}
	.st94{fill:url(#SVGID_77_);}
	.st95{fill:url(#SVGID_78_);}
	.st96{fill:url(#SVGID_79_);}
	.st97{fill:#F9F99B;}
	.st98{fill:none;stroke:#9D9D9C;stroke-width:4;stroke-miterlimit:10;}
	.st99{fill:url(#SVGID_80_);}
	.st100{fill:url(#SVGID_81_);}
	.st101{fill:none;stroke:#1D1D1B;stroke-width:13;stroke-miterlimit:10;}
</style>
<g>
	<g class="st0">
		<path class="st1" d="M136.1,459.1V344.8c-16.6,8.6-32.2,17.4-43.7,26.8c-40.7,33.4-20.9,74.1,48,101.8
			C137.7,469.3,136.1,464.4,136.1,459.1z"/>
	</g>
	<g class="st0">
		<path class="st1" d="M136.1,200.1v-98c0-14.1,11.5-25.6,25.6-25.6h440.1C572.9,63.1,538.3,51.2,498,41.7
			c-88.3-21-205.7-29.5-308.3-17.9C87.1,35.3,5.8,68.6,5.9,104.8c0.1,33.5,63,62.7,119.8,90.3C129.2,196.8,132.6,198.4,136.1,200.1z
			"/>
	</g>
	<g class="st0">
		<path class="st1" d="M924.5,300.9c-18.7-10-40.7-19.3-62.8-28.5v186.8c0,2.1-0.3,4.1-0.7,6.1c73.8-17.6,119.8-46.8,129-76.9
			C999.4,357.8,973.2,326.8,924.5,300.9z"/>
	</g>
	<g class="st0">
		<path class="st1" d="M173.9,484.7c77,21.9,181.3,27,279.3,15.6c87-8,181.8-8.9,269.1-15.6H173.9z"/>
	</g>
</g>
<g class="st2">
	<path class="st3" d="M136.1,102.1c0-5.7,1.9-10.9,5-15.2c-3.7-2.7-7.6-5-11.8-6.5c-22.3-8.3-46.6,5.5-56.1,26.3
		c-9.5,20.8-7,46.2-0.1,69.4c8.4,28.3,23.1,55,42.7,77.6c6.2,7.2,13,14,20.4,20V102.1z"/>
</g>
<g class="st4">
	<path class="st5" d="M925.3,127.9c-7.2-22.6-9.2-40.5-33.3-54c-13.2-7.4-34.9-4.5-50.7,3.1c11.6,2.4,20.5,12.7,20.5,25.1v208.4
		c6.5-3.9,12.5-9,18.1-15.6c20.6-24.4,38.2-48.7,46.1-79.9C931.8,191.9,932.5,150.6,925.3,127.9z"/>
</g>
<g>
	<g>
		<g>
			
				<linearGradient id="SVGID_1_" gradientUnits="userSpaceOnUse" x1="3048.0417" y1="2089.9561" x2="3055.9548" y2="2088.3735" gradientTransform="matrix(0.3367 0.9416 1.8249 -0.6526 -4768.8638 -1392.011)">
				<stop  offset="0" style="stop-color:#098ABC"/>
				<stop  offset="6.560563e-02" style="stop-color:#0985B7"/>
				<stop  offset="1" style="stop-color:#094072"/>
			</linearGradient>
			<path class="st6" d="M72,115.4c18.9-5.8,35.9-6.2,38-0.9l-77.9,24.1C32.1,138.6,53.1,121.2,72,115.4z"/>
			
				<linearGradient id="SVGID_2_" gradientUnits="userSpaceOnUse" x1="3055.6465" y1="2075.7429" x2="3064.3005" y2="2094.759" gradientTransform="matrix(0.3367 0.9416 1.8249 -0.6526 -4768.8638 -1392.011)">
				<stop  offset="0" style="stop-color:#098ABC"/>
				<stop  offset="6.560563e-02" style="stop-color:#0985B7"/>
				<stop  offset="1" style="stop-color:#094072"/>
			</linearGradient>
			<path class="st7" d="M32.1,138.6l77.9-24.1c2.1,5.3-11.4,14.4-30.3,20.2C60.9,140.5,32.1,138.6,32.1,138.6z"/>
		</g>
		<g>
			
				<linearGradient id="SVGID_3_" gradientUnits="userSpaceOnUse" x1="2722.3337" y1="2416.0938" x2="2730.0247" y2="2414.5557" gradientTransform="matrix(0.2077 0.8537 1.4436 -0.3512 -3987.4312 -1385.8187)">
				<stop  offset="0" style="stop-color:#098ABC"/>
				<stop  offset="6.560563e-02" style="stop-color:#0985B7"/>
				<stop  offset="1" style="stop-color:#094072"/>
			</linearGradient>
			<path class="st8" d="M66.2,90.8c15-2.8,28.4-1.1,29.8,3.6L33.9,106C33.9,106,51.2,93.6,66.2,90.8z"/>
			
				<linearGradient id="SVGID_4_" gradientUnits="userSpaceOnUse" x1="2729.6541" y1="2401.7488" x2="2738.4397" y2="2421.0542" gradientTransform="matrix(0.2077 0.8537 1.4436 -0.3512 -3987.4312 -1385.8187)">
				<stop  offset="0" style="stop-color:#098ABC"/>
				<stop  offset="6.560563e-02" style="stop-color:#0985B7"/>
				<stop  offset="1" style="stop-color:#094072"/>
			</linearGradient>
			<path class="st9" d="M33.9,106L96,94.5c1.4,4.8-9.6,10.9-24.7,13.7C56.3,111,33.9,106,33.9,106z"/>
		</g>
		<g>
			
				<linearGradient id="SVGID_5_" gradientUnits="userSpaceOnUse" x1="-284.5783" y1="1568.4093" x2="-290.5971" y2="1567.1146" gradientTransform="matrix(-0.6417 0.7669 0.7669 0.6417 -1284.2648 -692.2509)">
				<stop  offset="0" style="stop-color:#098ABC"/>
				<stop  offset="6.560563e-02" style="stop-color:#0985B7"/>
				<stop  offset="1" style="stop-color:#094072"/>
			</linearGradient>
			<polygon class="st10" points="102.8,96.8 99.6,95.1 102.4,89.7 105.6,91.4 			"/>
		</g>
		<g>
			
				<linearGradient id="SVGID_6_" gradientUnits="userSpaceOnUse" x1="-279.4753" y1="1592.0762" x2="-285.1152" y2="1590.8629" gradientTransform="matrix(-0.6417 0.7669 0.7669 0.6417 -1284.2648 -692.2509)">
				<stop  offset="0" style="stop-color:#098ABC"/>
				<stop  offset="6.560563e-02" style="stop-color:#0985B7"/>
				<stop  offset="1" style="stop-color:#094072"/>
			</linearGradient>
			<polygon class="st11" points="117.4,115.8 114.5,113.8 117.4,109.2 120.3,111.2 			"/>
		</g>
		<g>
			
				<linearGradient id="SVGID_7_" gradientUnits="userSpaceOnUse" x1="1782.483" y1="2470.449" x2="1789.5444" y2="2469.0366" gradientTransform="matrix(-7.370000e-02 0.7996 1.2768 0.1177 -2966.0439 -1650.019)">
				<stop  offset="0" style="stop-color:#098ABC"/>
				<stop  offset="6.560563e-02" style="stop-color:#0985B7"/>
				<stop  offset="1" style="stop-color:#094072"/>
			</linearGradient>
			<path class="st12" d="M57,67c13.6,2.3,24.6,7.7,24.6,12.1l-56.4-9.5C25.1,69.6,43.3,64.7,57,67z"/>
			
				<linearGradient id="SVGID_8_" gradientUnits="userSpaceOnUse" x1="1788.7347" y1="2455.5957" x2="1798.0179" y2="2475.9946" gradientTransform="matrix(-7.370000e-02 0.7996 1.2768 0.1177 -2966.0439 -1650.019)">
				<stop  offset="0" style="stop-color:#098ABC"/>
				<stop  offset="6.560563e-02" style="stop-color:#0985B7"/>
				<stop  offset="1" style="stop-color:#094072"/>
			</linearGradient>
			<path class="st13" d="M25.1,69.6l56.4,9.5c-0.1,4.4-11.2,6.1-24.8,3.8C43,80.6,25.1,69.6,25.1,69.6z"/>
		</g>
		<g>
			
				<linearGradient id="SVGID_9_" gradientUnits="userSpaceOnUse" x1="4407.9312" y1="-29.8438" x2="4415.73" y2="-31.4035" gradientTransform="matrix(0.8046 0.5938 -1.1508 1.5593 -3451.8965 -2497.3345)">
				<stop  offset="0" style="stop-color:#098ABC"/>
				<stop  offset="6.560563e-02" style="stop-color:#0985B7"/>
				<stop  offset="1" style="stop-color:#094072"/>
			</linearGradient>
			<path class="st14" d="M130.1,74.5c-11,16.4-16.3,32.7-11.8,36.3l45.4-68C163.7,42.8,141.1,58.1,130.1,74.5z"/>
			
				<linearGradient id="SVGID_10_" gradientUnits="userSpaceOnUse" x1="4415.4673" y1="-44.1117" x2="4424.1621" y2="-25.0055" gradientTransform="matrix(0.8046 0.5938 -1.1508 1.5593 -3451.8965 -2497.3345)">
				<stop  offset="0" style="stop-color:#098ABC"/>
				<stop  offset="6.560563e-02" style="stop-color:#0985B7"/>
				<stop  offset="1" style="stop-color:#094072"/>
			</linearGradient>
			<path class="st15" d="M163.7,42.8l-45.4,68c4.5,3.6,17-6.8,28-23.3C157.2,71.1,163.7,42.8,163.7,42.8z"/>
		</g>
		<g>
			
				<linearGradient id="SVGID_11_" gradientUnits="userSpaceOnUse" x1="4382.9272" y1="-41.7984" x2="4389.7749" y2="-43.168" gradientTransform="matrix(0.8435 0.5371 -1.041 1.6348 -3629.9277 -2226.7002)">
				<stop  offset="0" style="stop-color:#098ABC"/>
				<stop  offset="6.560563e-02" style="stop-color:#0985B7"/>
				<stop  offset="1" style="stop-color:#094072"/>
			</linearGradient>
			<path class="st16" d="M111.5,59.8c-8.6,15-12.3,29.6-8.2,32.4L139,30.1C139,30.1,120.2,44.8,111.5,59.8z"/>
			
				<linearGradient id="SVGID_12_" gradientUnits="userSpaceOnUse" x1="4389.4995" y1="-54.2975" x2="4397.123" y2="-37.5463" gradientTransform="matrix(0.8435 0.5371 -1.041 1.6348 -3629.9277 -2226.7002)">
				<stop  offset="0" style="stop-color:#098ABC"/>
				<stop  offset="6.560563e-02" style="stop-color:#0985B7"/>
				<stop  offset="1" style="stop-color:#094072"/>
			</linearGradient>
			<path class="st17" d="M139,30.1l-35.7,62.2c4.1,2.9,14.5-7,23.1-22.1C135.1,55.1,139,30.1,139,30.1z"/>
		</g>
		<g>
			
				<linearGradient id="SVGID_13_" gradientUnits="userSpaceOnUse" x1="-287.9875" y1="1551.479" x2="-295.5441" y2="1546.36" gradientTransform="matrix(-0.6417 0.7669 0.7669 0.6417 -1284.2648 -692.2509)">
				<stop  offset="0" style="stop-color:#098ABC"/>
				<stop  offset="6.560563e-02" style="stop-color:#0985B7"/>
				<stop  offset="1" style="stop-color:#094072"/>
			</linearGradient>
			<polygon class="st18" points="92,82.5 89.4,82.4 89.6,73.4 92.3,73.5 			"/>
		</g>
		<g>
			
				<linearGradient id="SVGID_14_" gradientUnits="userSpaceOnUse" x1="5474.6304" y1="13.166" x2="5481.6587" y2="11.7603" gradientTransform="matrix(0.7869 0.1599 -0.2553 1.2565 -4219.1792 -844.9423)">
				<stop  offset="0" style="stop-color:#098ABC"/>
				<stop  offset="6.560563e-02" style="stop-color:#0985B7"/>
				<stop  offset="1" style="stop-color:#094072"/>
			</linearGradient>
			<path class="st19" d="M86.3,47.4c-1.7,13.8,0.3,25.9,4.5,27.1L98,17.6C98,17.6,88.1,33.6,86.3,47.4z"/>
			
				<linearGradient id="SVGID_15_" gradientUnits="userSpaceOnUse" x1="5480.8115" y1="-1.7221" x2="5490.1284" y2="18.7499" gradientTransform="matrix(0.7869 0.1599 -0.2553 1.2565 -4219.1792 -844.9423)">
				<stop  offset="0" style="stop-color:#098ABC"/>
				<stop  offset="6.560563e-02" style="stop-color:#0985B7"/>
				<stop  offset="1" style="stop-color:#094072"/>
			</linearGradient>
			<path class="st20" d="M98,17.6l-7.1,56.9c4.2,1.2,9-9,10.7-22.8C103.3,37.9,98,17.6,98,17.6z"/>
		</g>
		<g>
			
				<linearGradient id="SVGID_16_" gradientUnits="userSpaceOnUse" x1="-280.2143" y1="1589.012" x2="-274.8086" y2="1587.9309" gradientTransform="matrix(-0.6417 0.7669 0.7669 0.6417 -1284.2648 -692.2509)">
				<stop  offset="0" style="stop-color:#098ABC"/>
				<stop  offset="6.560563e-02" style="stop-color:#0985B7"/>
				<stop  offset="1" style="stop-color:#094072"/>
			</linearGradient>
			<polygon class="st21" points="114.6,115 110,116.2 109.4,113.5 114,112.3 			"/>
		</g>
		<g>
			
				<linearGradient id="SVGID_17_" gradientUnits="userSpaceOnUse" x1="-284.377" y1="1581.4574" x2="-276.9653" y2="1579.9751" gradientTransform="matrix(-0.6417 0.7669 0.7669 0.6417 -1284.2648 -692.2509)">
				<stop  offset="0" style="stop-color:#098ABC"/>
				<stop  offset="6.560563e-02" style="stop-color:#0985B7"/>
				<stop  offset="1" style="stop-color:#094072"/>
			</linearGradient>
			<path class="st22" d="M136.7,144.5l0.3,4.4c-0.5-10.8,10,7.7-50.1-69.2c-5.6-7.2-10-13.1-10-13.1l2.1-1.7c0,0,4.4,5.9,10,13.1
				C126.5,126.1,136.1,130.4,136.7,144.5z"/>
		</g>
		<g>
			
				<linearGradient id="SVGID_18_" gradientUnits="userSpaceOnUse" x1="-290.3825" y1="1546.3315" x2="-282.8527" y2="1544.8256" gradientTransform="matrix(-0.6417 0.7669 0.7669 0.6417 -1284.2648 -692.2509)">
				<stop  offset="0" style="stop-color:#098ABC"/>
				<stop  offset="6.560563e-02" style="stop-color:#0985B7"/>
				<stop  offset="1" style="stop-color:#094072"/>
			</linearGradient>
			<polygon class="st23" points="89,81.9 80.5,80.3 81,77.6 89.4,79.2 			"/>
		</g>
		<g>
			
				<linearGradient id="SVGID_19_" gradientUnits="userSpaceOnUse" x1="-286.1419" y1="1565.3893" x2="-280.8685" y2="1564.3346" gradientTransform="matrix(-0.6417 0.7669 0.7669 0.6417 -1284.2648 -692.2509)">
				<stop  offset="0" style="stop-color:#098ABC"/>
				<stop  offset="6.560563e-02" style="stop-color:#0985B7"/>
				<stop  offset="1" style="stop-color:#094072"/>
			</linearGradient>
			<polygon class="st24" points="100.1,95.9 95.4,95.8 95.4,93.1 100.1,93.2 			"/>
		</g>
		<g>
			
				<linearGradient id="SVGID_20_" gradientUnits="userSpaceOnUse" x1="339.1671" y1="1333.9552" x2="346.6711" y2="1332.4545" gradientTransform="matrix(-0.6352 0.4913 0.9411 1.2168 -972.0659 -1749.2924)">
				<stop  offset="0" style="stop-color:#098ABC"/>
				<stop  offset="6.560563e-02" style="stop-color:#0985B7"/>
				<stop  offset="1" style="stop-color:#094072"/>
			</linearGradient>
			<path class="st25" d="M67.2,42.2c9.1,11.9,14.4,23.2,11.8,25.3L41.2,18.3C41.2,18.3,58.1,30.3,67.2,42.2z"/>
			
				<linearGradient id="SVGID_21_" gradientUnits="userSpaceOnUse" x1="343.9779" y1="1321.4397" x2="351.9462" y2="1338.949" gradientTransform="matrix(-0.6352 0.4913 0.9411 1.2168 -972.0659 -1749.2924)">
				<stop  offset="0" style="stop-color:#098ABC"/>
				<stop  offset="6.560563e-02" style="stop-color:#0985B7"/>
				<stop  offset="1" style="stop-color:#094072"/>
			</linearGradient>
			<path class="st26" d="M41.2,18.3l37.7,49.2c-2.6,2.1-12.2-5.9-21.3-17.8C48.5,37.7,41.2,18.3,41.2,18.3z"/>
		</g>
	</g>
	<g>
		<g>
			
				<linearGradient id="SVGID_22_" gradientUnits="userSpaceOnUse" x1="2855.9697" y1="2269.3596" x2="2860.5039" y2="2268.4529" gradientTransform="matrix(-0.9141 0.4055 0.8504 1.9167 1546.1791 -5439.7593)">
				<stop  offset="0" style="stop-color:#098ABC"/>
				<stop  offset="6.560563e-02" style="stop-color:#0985B7"/>
				<stop  offset="1" style="stop-color:#094072"/>
			</linearGradient>
			<path class="st27" d="M864.7,68.4c5.1,15.2,6.2,29.2,2.4,31.2l-21-62.7C846.2,36.9,859.6,53.2,864.7,68.4z"/>
			
				<linearGradient id="SVGID_23_" gradientUnits="userSpaceOnUse" x1="2861.333" y1="2258.1921" x2="2868.124" y2="2273.1143" gradientTransform="matrix(-0.9141 0.4055 0.8504 1.9167 1546.1791 -5439.7593)">
				<stop  offset="0" style="stop-color:#098ABC"/>
				<stop  offset="6.560563e-02" style="stop-color:#0985B7"/>
				<stop  offset="1" style="stop-color:#094072"/>
			</linearGradient>
			<path class="st28" d="M846.2,36.9l21,62.7c-3.7,2.1-10.9-8.6-15.9-23.8C846.1,60.7,846.2,36.9,846.2,36.9z"/>
		</g>
		<g>
			
				<linearGradient id="SVGID_24_" gradientUnits="userSpaceOnUse" x1="2926.7996" y1="2382.0869" x2="2932.2175" y2="2381.0032" gradientTransform="matrix(-0.9 0.4359 0.8448 1.7443 1503.6272 -5379.0449)">
				<stop  offset="0" style="stop-color:#098ABC"/>
				<stop  offset="6.560563e-02" style="stop-color:#0985B7"/>
				<stop  offset="1" style="stop-color:#094072"/>
			</linearGradient>
			<path class="st29" d="M881.2,52.3c5.7,14.1,7.3,27.2,3.5,29.4l-23.5-58.2C861.1,23.5,875.5,38.2,881.2,52.3z"/>
			
				<linearGradient id="SVGID_25_" gradientUnits="userSpaceOnUse" x1="2932.2551" y1="2371.0002" x2="2939.0427" y2="2385.915" gradientTransform="matrix(-0.9 0.4359 0.8448 1.7443 1503.6272 -5379.0449)">
				<stop  offset="0" style="stop-color:#098ABC"/>
				<stop  offset="6.560563e-02" style="stop-color:#0985B7"/>
				<stop  offset="1" style="stop-color:#094072"/>
			</linearGradient>
			<path class="st30" d="M861.1,23.5l23.5,58.2c-3.8,2.1-11.4-7.6-17.1-21.7C861.8,46,861.1,23.5,861.1,23.5z"/>
		</g>
		<g>
			
				<linearGradient id="SVGID_26_" gradientUnits="userSpaceOnUse" x1="2526.8193" y1="2787.1877" x2="2532.1921" y2="2786.1133" gradientTransform="matrix(-0.8264 0.2981 0.5043 1.3975 1582.2618 -4602.9561)">
				<stop  offset="0" style="stop-color:#098ABC"/>
				<stop  offset="6.560563e-02" style="stop-color:#0985B7"/>
				<stop  offset="1" style="stop-color:#094072"/>
			</linearGradient>
			<path class="st31" d="M898.8,45.7c3.2,11.4,3,21.9-0.5,23.4l-13.1-47.2C885.3,21.9,895.7,34.3,898.8,45.7z"/>
			
				<linearGradient id="SVGID_27_" gradientUnits="userSpaceOnUse" x1="2532.011" y1="2776.0276" x2="2538.8999" y2="2791.165" gradientTransform="matrix(-0.8264 0.2981 0.5043 1.3975 1582.2618 -4602.9561)">
				<stop  offset="0" style="stop-color:#098ABC"/>
				<stop  offset="6.560563e-02" style="stop-color:#0985B7"/>
				<stop  offset="1" style="stop-color:#094072"/>
			</linearGradient>
			<path class="st32" d="M885.3,21.9l13.1,47.2c-3.4,1.5-8.8-6.5-11.9-17.9C883.3,39.8,885.3,21.9,885.3,21.9z"/>
		</g>
		<g>
			
				<linearGradient id="SVGID_28_" gradientUnits="userSpaceOnUse" x1="-827.423" y1="1747.8317" x2="-831.8564" y2="1746.8781" gradientTransform="matrix(-0.8314 -0.5557 -0.5557 0.8314 1180.9446 -1839.7855)">
				<stop  offset="0" style="stop-color:#098ABC"/>
				<stop  offset="6.560563e-02" style="stop-color:#0985B7"/>
				<stop  offset="1" style="stop-color:#094072"/>
			</linearGradient>
			<polygon class="st33" points="897.1,74.5 898.2,71.9 902.4,73.6 901.3,76.2 			"/>
		</g>
		<g>
			
				<linearGradient id="SVGID_29_" gradientUnits="userSpaceOnUse" x1="-823.987" y1="1766.0287" x2="-828.1436" y2="1765.1345" gradientTransform="matrix(-0.8314 -0.5557 -0.5557 0.8314 1180.9446 -1839.7855)">
				<stop  offset="0" style="stop-color:#098ABC"/>
				<stop  offset="6.560563e-02" style="stop-color:#0985B7"/>
				<stop  offset="1" style="stop-color:#094072"/>
			</linearGradient>
			<polygon class="st34" points="884.2,87.5 885.5,85.1 889.1,86.9 887.8,89.4 			"/>
		</g>
		<g>
			
				<linearGradient id="SVGID_30_" gradientUnits="userSpaceOnUse" x1="-819.377" y1="1790.2964" x2="-822.512" y2="1789.6221" gradientTransform="matrix(-0.8314 -0.5557 -0.5557 0.8314 1180.9446 -1839.7855)">
				<stop  offset="0" style="stop-color:#098ABC"/>
				<stop  offset="6.560563e-02" style="stop-color:#0985B7"/>
				<stop  offset="1" style="stop-color:#094072"/>
			</linearGradient>
			<polygon class="st35" points="867,104.9 867.9,103.1 870.7,104.4 869.8,106.3 			"/>
		</g>
		<g>
			
				<linearGradient id="SVGID_31_" gradientUnits="userSpaceOnUse" x1="-815.914" y1="1807.1646" x2="-819.2993" y2="1806.4364" gradientTransform="matrix(-0.8314 -0.5557 -0.5557 0.8314 1180.9446 -1839.7855)">
				<stop  offset="0" style="stop-color:#098ABC"/>
				<stop  offset="6.560563e-02" style="stop-color:#0985B7"/>
				<stop  offset="1" style="stop-color:#094072"/>
			</linearGradient>
			<polyline class="st36" points="855.6,114.9 858.6,116.9 857.4,118.6 			"/>
		</g>
		<g>
			
				<linearGradient id="SVGID_32_" gradientUnits="userSpaceOnUse" x1="1362.8086" y1="2833.8911" x2="1368.0092" y2="2832.8508" gradientTransform="matrix(-0.8029 1.260019e-02 2.008574e-02 1.2821 1953.6639 -3614.386)">
				<stop  offset="0" style="stop-color:#098ABC"/>
				<stop  offset="6.560563e-02" style="stop-color:#0985B7"/>
				<stop  offset="1" style="stop-color:#094072"/>
			</linearGradient>
			<path class="st37" d="M915.7,36.4c-0.7,10.8-3.9,19.8-7.1,20.1l2.8-44.5C911.4,11.9,916.4,25.6,915.7,36.4z"/>
			
				<linearGradient id="SVGID_33_" gradientUnits="userSpaceOnUse" x1="1367.1239" y1="2822.4087" x2="1374.379" y2="2838.3506" gradientTransform="matrix(-0.8029 1.260019e-02 2.008574e-02 1.2821 1953.6639 -3614.386)">
				<stop  offset="0" style="stop-color:#098ABC"/>
				<stop  offset="6.560563e-02" style="stop-color:#0985B7"/>
				<stop  offset="1" style="stop-color:#094072"/>
			</linearGradient>
			<path class="st38" d="M911.4,11.9l-2.8,44.5c-3.2,0.3-5.3-8.1-4.6-18.9C904.7,26.8,911.4,11.9,911.4,11.9z"/>
		</g>
		<g>
			
				<linearGradient id="SVGID_34_" gradientUnits="userSpaceOnUse" x1="4485.3853" y1="-146.1025" x2="4491.9741" y2="-147.4203" gradientTransform="matrix(-0.5666 0.8239 -1.8779 -1.2915 3154.6873 -3757.8064)">
				<stop  offset="0" style="stop-color:#098ABC"/>
				<stop  offset="6.560563e-02" style="stop-color:#0985B7"/>
				<stop  offset="1" style="stop-color:#094072"/>
			</linearGradient>
			<path class="st39" d="M887,127.4c-13.5-9-26.4-13.3-29-9.7l55.6,37.1C913.6,154.8,900.4,136.4,887,127.4z"/>
			
				<linearGradient id="SVGID_35_" gradientUnits="userSpaceOnUse" x1="4492.0005" y1="-156.0903" x2="4497.9199" y2="-143.0832" gradientTransform="matrix(-0.5666 0.8239 -1.8779 -1.2915 3154.6873 -3757.8064)">
				<stop  offset="0" style="stop-color:#098ABC"/>
				<stop  offset="6.560563e-02" style="stop-color:#0985B7"/>
				<stop  offset="1" style="stop-color:#094072"/>
			</linearGradient>
			<path class="st40" d="M913.6,154.8L858,117.7c-2.5,3.6,6.3,13.9,19.8,22.8C891.2,149.6,913.6,154.8,913.6,154.8z"/>
		</g>
		<g>
			
				<linearGradient id="SVGID_36_" gradientUnits="userSpaceOnUse" x1="4721.6572" y1="-181.7639" x2="4727.5933" y2="-182.951" gradientTransform="matrix(-0.4749 0.8801 -1.8454 -0.9956 2805.6626 -4227.3291)">
				<stop  offset="0" style="stop-color:#098ABC"/>
				<stop  offset="6.560563e-02" style="stop-color:#0985B7"/>
				<stop  offset="1" style="stop-color:#094072"/>
			</linearGradient>
			<path class="st41" d="M898.5,110c-13.5-6.6-26.2-8.8-28.4-4.9l55.7,27.1C925.7,132.1,912,116.5,898.5,110z"/>
			
				<linearGradient id="SVGID_37_" gradientUnits="userSpaceOnUse" x1="4727.9922" y1="-192.0082" x2="4734.0889" y2="-178.6106" gradientTransform="matrix(-0.4749 0.8801 -1.8454 -0.9956 2805.6626 -4227.3291)">
				<stop  offset="0" style="stop-color:#098ABC"/>
				<stop  offset="6.560563e-02" style="stop-color:#0985B7"/>
				<stop  offset="1" style="stop-color:#094072"/>
			</linearGradient>
			<path class="st42" d="M925.7,132.1L870.1,105c-2.2,3.8,6.9,12.2,20.4,18.8C903.9,130.4,925.7,132.1,925.7,132.1z"/>
		</g>
		<g>
			
				<linearGradient id="SVGID_38_" gradientUnits="userSpaceOnUse" x1="3668.5054" y1="-190.252" x2="3668.5054" y2="-190.252" gradientTransform="matrix(-0.8091 0.5878 -1.3395 -1.8439 3534.728 -2355.2461)">
				<stop  offset="0" style="stop-color:#098ABC"/>
				<stop  offset="6.560563e-02" style="stop-color:#0985B7"/>
				<stop  offset="1" style="stop-color:#094072"/>
			</linearGradient>
			<path class="st43" d="M821.2,151.9"/>
		</g>
		<g>
			
				<linearGradient id="SVGID_39_" gradientUnits="userSpaceOnUse" x1="4619.3545" y1="-299.0554" x2="4625.7778" y2="-300.34" gradientTransform="matrix(-0.504 0.8637 -1.6739 -0.9767 2743.6663 -4189.1021)">
				<stop  offset="0" style="stop-color:#098ABC"/>
				<stop  offset="6.560563e-02" style="stop-color:#0985B7"/>
				<stop  offset="1" style="stop-color:#094072"/>
			</linearGradient>
			<path class="st44" d="M915.6,93.7c-12.9-7.1-25.3-9.7-27.6-5.9l53.4,29.2C941.4,116.9,928.5,100.7,915.6,93.7z"/>
			
				<linearGradient id="SVGID_40_" gradientUnits="userSpaceOnUse" x1="4625.5273" y1="-309.6409" x2="4631.9141" y2="-295.6068" gradientTransform="matrix(-0.504 0.8637 -1.6739 -0.9767 2743.6663 -4189.1021)">
				<stop  offset="0" style="stop-color:#098ABC"/>
				<stop  offset="6.560563e-02" style="stop-color:#0985B7"/>
				<stop  offset="1" style="stop-color:#094072"/>
			</linearGradient>
			<path class="st45" d="M941.4,116.9L888,87.8c-2.3,3.8,6.3,12.6,19.2,19.6C920.1,114.5,941.4,116.9,941.4,116.9z"/>
		</g>
		<g>
			
				<linearGradient id="SVGID_41_" gradientUnits="userSpaceOnUse" x1="4618.5522" y1="-311.6226" x2="4624.5371" y2="-312.8195" gradientTransform="matrix(-0.4404 0.8727 -1.6762 -0.8457 2438.9382 -4216.959)">
				<stop  offset="0" style="stop-color:#098ABC"/>
				<stop  offset="6.560563e-02" style="stop-color:#0985B7"/>
				<stop  offset="1" style="stop-color:#094072"/>
			</linearGradient>
			<path class="st46" d="M926.6,78.2c-12.1-5.7-23.5-7.3-25.4-3.7l50.1,23.4C951.3,97.9,938.7,83.9,926.6,78.2z"/>
			
				<linearGradient id="SVGID_42_" gradientUnits="userSpaceOnUse" x1="4624.3359" y1="-321.5658" x2="4630.335" y2="-308.3841" gradientTransform="matrix(-0.4404 0.8727 -1.6762 -0.8457 2438.9382 -4216.959)">
				<stop  offset="0" style="stop-color:#098ABC"/>
				<stop  offset="6.560563e-02" style="stop-color:#0985B7"/>
				<stop  offset="1" style="stop-color:#094072"/>
			</linearGradient>
			<path class="st47" d="M951.3,97.9l-50.1-23.4c-1.9,3.6,6.4,11.1,18.5,16.7C931.8,96.9,951.3,97.9,951.3,97.9z"/>
		</g>
		<g>
			
				<linearGradient id="SVGID_43_" gradientUnits="userSpaceOnUse" x1="-366.3477" y1="1383.2896" x2="-359.9416" y2="1382.0083" gradientTransform="matrix(-0.5567 -0.5788 -1.1087 1.0662 2266.0723 -1644.2122)">
				<stop  offset="0" style="stop-color:#098ABC"/>
				<stop  offset="6.560563e-02" style="stop-color:#0985B7"/>
				<stop  offset="1" style="stop-color:#094072"/>
			</linearGradient>
			<path class="st48" d="M934.7,42.1c-8.1,8.1-16,13.2-17.7,11.4l33.4-33.6C950.4,19.8,942.8,34,934.7,42.1z"/>
			
				<linearGradient id="SVGID_44_" gradientUnits="userSpaceOnUse" x1="-362.2281" y1="1373.8501" x2="-356.2757" y2="1386.9298" gradientTransform="matrix(-0.5567 -0.5788 -1.1087 1.0662 2266.0723 -1644.2122)">
				<stop  offset="0" style="stop-color:#098ABC"/>
				<stop  offset="6.560563e-02" style="stop-color:#0985B7"/>
				<stop  offset="1" style="stop-color:#094072"/>
			</linearGradient>
			<path class="st49" d="M950.4,19.8L917,53.5c-1.7-1.9,3.5-10,11.5-18.1C936.6,27.2,950.4,19.8,950.4,19.8z"/>
		</g>
		<g>
			
				<linearGradient id="SVGID_45_" gradientUnits="userSpaceOnUse" x1="-829.6666" y1="1734.7599" x2="-835.2524" y2="1730.976" gradientTransform="matrix(-0.8314 -0.5557 -0.5557 0.8314 1180.9446 -1839.7855)">
				<stop  offset="0" style="stop-color:#098ABC"/>
				<stop  offset="6.560563e-02" style="stop-color:#0985B7"/>
				<stop  offset="1" style="stop-color:#094072"/>
			</linearGradient>
			<polygon class="st50" points="906.9,64.9 906.8,62.8 913.4,62.3 913.5,64.3 			"/>
		</g>
		<g>
			
				<linearGradient id="SVGID_46_" gradientUnits="userSpaceOnUse" x1="-820.0184" y1="1787.5144" x2="-815.6225" y2="1787.5144" gradientTransform="matrix(-0.8314 -0.5557 -0.5557 0.8314 1180.9446 -1839.7855)">
				<stop  offset="0" style="stop-color:#098ABC"/>
				<stop  offset="6.560563e-02" style="stop-color:#0985B7"/>
				<stop  offset="1" style="stop-color:#094072"/>
			</linearGradient>
			<polygon class="st51" points="867.3,103.2 866,99.4 867.9,98.6 869.2,102.4 			"/>
		</g>
		<g>
			
				<linearGradient id="SVGID_47_" gradientUnits="userSpaceOnUse" x1="6001.2227" y1="-282.3138" x2="6006.5425" y2="-283.3776" gradientTransform="matrix(-7.445420e-02 0.7995 -1.2766 -0.1189 1018.838 -4774.728)">
				<stop  offset="0" style="stop-color:#098ABC"/>
				<stop  offset="6.560563e-02" style="stop-color:#0985B7"/>
				<stop  offset="1" style="stop-color:#094072"/>
			</linearGradient>
			<path class="st52" d="M932.3,57.4c-10.3-0.1-19.1,2.5-19.6,5.9l42.5,0.5C955.2,63.8,942.6,57.5,932.3,57.4z"/>
			
				<linearGradient id="SVGID_48_" gradientUnits="userSpaceOnUse" x1="6006.3281" y1="-293.5171" x2="6013.2583" y2="-278.289" gradientTransform="matrix(-7.445420e-02 0.7995 -1.2766 -0.1189 1018.838 -4774.728)">
				<stop  offset="0" style="stop-color:#098ABC"/>
				<stop  offset="6.560563e-02" style="stop-color:#0985B7"/>
				<stop  offset="1" style="stop-color:#094072"/>
			</linearGradient>
			<path class="st53" d="M955.2,63.8l-42.5-0.5c-0.6,3.4,7.3,6.2,17.6,6.3C940.6,69.7,955.2,63.8,955.2,63.8z"/>
		</g>
		<g>
			
				<linearGradient id="SVGID_49_" gradientUnits="userSpaceOnUse" x1="-824.4756" y1="1763.5941" x2="-820.4031" y2="1762.7795" gradientTransform="matrix(-0.8314 -0.5557 -0.5557 0.8314 1180.9446 -1839.7855)">
				<stop  offset="0" style="stop-color:#098ABC"/>
				<stop  offset="6.560563e-02" style="stop-color:#0985B7"/>
				<stop  offset="1" style="stop-color:#094072"/>
			</linearGradient>
			<polygon class="st54" points="884.6,85.3 883.4,81.8 885.3,81.1 886.5,84.6 			"/>
		</g>
		<g>
			
				<linearGradient id="SVGID_50_" gradientUnits="userSpaceOnUse" x1="-816.8076" y1="1807.08" x2="-810.703" y2="1805.859" gradientTransform="matrix(-0.3263 -0.1884 -0.2492 0.3284 1073.922 -669.0342)">
				<stop  offset="0" style="stop-color:#098ABC"/>
				<stop  offset="6.560563e-02" style="stop-color:#0985B7"/>
				<stop  offset="1" style="stop-color:#094072"/>
			</linearGradient>
			<path class="st55" d="M861.7,102L861.7,102c0-0.4,0.2-0.8,0.6-1.1c5.2-2.8,29.3-24.8,50.9-45.2c2.1-2,3.4-3.2,3.4-3.2l0.5,0.5
				c0,0-1.3,1.2-3.4,3.2C899.5,69.7,866,101.1,861.7,102z"/>
		</g>
		<g>
			
				<linearGradient id="SVGID_51_" gradientUnits="userSpaceOnUse" x1="-831.4433" y1="1730.7799" x2="-825.6677" y2="1729.6248" gradientTransform="matrix(-0.8314 -0.5557 -0.5557 0.8314 1180.9446 -1839.7855)">
				<stop  offset="0" style="stop-color:#098ABC"/>
				<stop  offset="6.560563e-02" style="stop-color:#0985B7"/>
				<stop  offset="1" style="stop-color:#094072"/>
			</linearGradient>
			<polygon class="st56" points="907.1,62.5 907.6,55.8 909.6,55.9 909.1,62.6 			"/>
		</g>
		<g>
			
				<linearGradient id="SVGID_52_" gradientUnits="userSpaceOnUse" x1="-828.5393" y1="1745.4473" x2="-824.5403" y2="1744.6475" gradientTransform="matrix(-0.8314 -0.5557 -0.5557 0.8314 1180.9446 -1839.7855)">
				<stop  offset="0" style="stop-color:#098ABC"/>
				<stop  offset="6.560563e-02" style="stop-color:#0985B7"/>
				<stop  offset="1" style="stop-color:#094072"/>
			</linearGradient>
			<polygon class="st57" points="897.6,72.4 897.3,68.7 899.3,68.5 899.6,72.2 			"/>
		</g>
	</g>
	<path class="st58" d="M307.8,51.1c1.1,7-4.7,13-11.5,11.8c-4.1-0.7-7.4-4.1-8.1-8.4c-1.1-7,4.7-13,11.5-11.8
		C303.8,43.4,307.1,46.8,307.8,51.1z"/>
	<path class="st58" d="M268.1,39c4.1,2.7,4.1,8.7,0,11.3c-2.1,1.3-4.8,1.3-6.8,0c-4.1-2.7-4.1-8.7,0-11.3
		C263.3,37.7,266,37.7,268.1,39z"/>
</g>
<ellipse class="st59" cx="498.8" cy="539.1" rx="490.4" ry="18.1"/>
<g>
	<polygon class="st60" points="975.5,254.6 994.1,241 984.8,237.7 970.5,249.6 	"/>
	<g>
		
			<linearGradient id="SVGID_53_" gradientUnits="userSpaceOnUse" x1="1503.2076" y1="260.2213" x2="1541.7867" y2="552.1135" gradientTransform="matrix(-1 0 0 1 2439.4944 0)">
			<stop  offset="6.799020e-02" style="stop-color:#ECDFCF"/>
			<stop  offset="0.8039" style="stop-color:#E58057"/>
		</linearGradient>
		<path class="st61" d="M906.2,525.7c0.1,0.5-0.1,1-0.5,1.3c-0.6,0.5-1.5,0.4-2-0.3L887.9,513c-1.8-1.7-4.5-2.4-6-5.1l-4.3-5.7
			c-0.5-0.7-0.3-1.6,0.4-2l5.1-4c2.5-1.9,4.4-4.6,5.3-7.6l25.5-79.9l-8.6-67.8h27.5c4,14.8,12.7,56.1,12,60.5
			c-0.6,3.7-36.2,77.4-46.7,99.1c-0.3,1.2-0.5,2.3-0.6,3.5l0.3,2.2c0,0.6,0.9,2.5,0.9,3.3L906.2,525.7z"/>
		<g>
			<path class="st62" d="M880,515.9c1.7,0.6,2.5,1.9,3.7,3.7c1,1.3,6,7.7,13.1,12.3c7,4.6,13.6,5.7,19.2,5.8c0,0,1-0.3,1.7-1.9
				l-0.3-0.2c-1.4,0-11.9,0.6-21.1-7.1c-0.7-0.5-1.3-1.1-1.9-1.7c-4.1-4.1-6.5-6.1-7.6-7.6c-0.6-0.8-0.6-1-0.9-1.5
				c-0.4-0.6-1.3-2.7-3.4-3l-0.3,0l-0.2-0.2l-10.4-8.9c-0.8,0.5-1.7,1.4-1.8,2.3C869.5,509.5,876.9,514.8,880,515.9z"/>
			
				<linearGradient id="SVGID_54_" gradientUnits="userSpaceOnUse" x1="1521.8771" y1="515.5663" x2="1567.4475" y2="515.5663" gradientTransform="matrix(-1 0 0 1 2439.4944 0)">
				<stop  offset="0" style="stop-color:#6C82B3"/>
				<stop  offset="1" style="stop-color:#4335A2"/>
			</linearGradient>
			<path class="st63" d="M900.3,510.8c-0.7-1.4-1.5-2.5-2.4-3.8l0,0c-0.6,0.3-1.2,0.8-1.6,1.4l-1,1.4c-2.9,0-5.3-1.2-7.3-2.8
				c-3.9-3.2-5.6-10.9-5.6-10.9c-6.6,3.4-10.4,9-10.4,9l0.4,0.4l10.1,8.5c2.7,0.6,3.2,2.2,3.8,3c1.1,1.5,2.3,3.5,8.8,9.7
				c0.6,0.6,1.2,1.1,1.9,1.6c7.4,6,15.1,6.4,18.8,6.7c1.1,0.1,1.7,0.1,1.7,0.1s1.3-3-3-6.5c-2-1.6-4.6-1.1-5.8-2.1
				c-1.5-1.2-1.9-2.2-2.3-2.9C904.5,520.5,902,513.9,900.3,510.8z"/>
		</g>
		
			<linearGradient id="SVGID_55_" gradientUnits="userSpaceOnUse" x1="1478.701" y1="219.4776" x2="1515.2233" y2="253.7497" gradientTransform="matrix(-1 0 0 1 2439.4944 0)">
			<stop  offset="6.799020e-02" style="stop-color:#ECDFCF"/>
			<stop  offset="0.8039" style="stop-color:#E58057"/>
		</linearGradient>
		<polygon class="st64" points="970.3,244.9 913.7,229.4 907.2,244.9 962.3,248.8 		"/>
		
			<linearGradient id="SVGID_56_" gradientUnits="userSpaceOnUse" x1="1497.202" y1="419.8651" x2="1551.672" y2="436.7508" gradientTransform="matrix(-1 0 0 1 2439.4944 0)">
			<stop  offset="6.799020e-02" style="stop-color:#ECDFCF"/>
			<stop  offset="0.8039" style="stop-color:#E58057"/>
		</linearGradient>
		<path class="st65" d="M903.6,426.4L879,353.3l38.7-27.7c2,2.2,9.4,86,10.1,93.6c0.8,8.4-3.5,64.1,3.4,97.4l1.5,8
			c0,0-8.2,2.6-8.7,2.6c-0.5,0-9.5-3.2-9.5-3.2l-0.1-1.5c2.4-3.6,2.8-9.1,1.5-13.2C911.1,493.3,900.5,445.3,903.6,426.4z"/>
		<g>
			<path class="st62" d="M924.5,540c0,0,1.9-0.7,3.5-0.7c1.6,0,9.6,2.1,17.9,1.6c8.3-0.5,15.3-0.6,19.8-3.8c0,0,0.6-0.9,0.2-2.6
				l-0.4,0c-1.1,0.8-10.2,4.5-22.1,3.9c-0.8,0-1.7-0.1-2.5-0.2c-5.7-0.8-8.7-1-10.5-1.5c-1-0.3-1.6-0.5-2.2-0.5
				c-0.7,0-1.3,0.2-2.8,1l-0.3,0.2l-0.3,0l-13.5-0.9c-0.3,0.9-0.6,2.1,0,2.9C912.2,540.9,924.5,540,924.5,540z"/>
			
				<linearGradient id="SVGID_57_" gradientUnits="userSpaceOnUse" x1="1481.0607" y1="522.8439" x2="1527.2925" y2="537.1757" gradientTransform="matrix(-1 0 0 1 2439.4944 0)">
				<stop  offset="0" style="stop-color:#6C82B3"/>
				<stop  offset="1" style="stop-color:#4335A2"/>
			</linearGradient>
			<path class="st66" d="M936.2,522.1c-1.4-0.6-2.7-1.1-4.1-1.6l0,0c-0.3,0.6-0.5,1.4-0.5,2.1l0,1.7c-2.3,1.7-4.9,2.2-7.4,2.1
				c-5-0.2-9.7-3.8-9.7-3.8c-3.2,6.6-2.9,13.3-2.9,13.3l0.5,0.1l13.3,0.7c1.5-0.9,2.3-1.2,3.3-1.2c1.8,0.1,4,1.1,12.8,2.2
				c0.8,0.1,1.6,0.2,2.4,0.2c9.5,0.4,17.4-1.5,20.5-3.5c0.9-0.6,1.4-0.9,1.4-0.9s-2-3.6-7.5-3.8c-2.5-0.1-4.6-0.1-6.2-0.1
				c-1.9-0.1-2.9-0.6-3.5-0.9C945.3,527.3,939.3,523.6,936.2,522.1z"/>
		</g>
		<path class="st67" d="M931.5,142.6c0,0,5.2,2.1,3.9,8.9c-1.1,5.8-4.5,36.8-5.5,46.3c-0.3,2.7-1.5,5.4-3.6,7
			c-1.8,1.3-1.9,2.4-12.3,1.7c-16.1-1.1-5.7-35.8-5.7-35.8L931.5,142.6z"/>
		
			<linearGradient id="SVGID_58_" gradientUnits="userSpaceOnUse" x1="-841.877" y1="318.6714" x2="-830.923" y2="303.2363" gradientTransform="matrix(0.9931 0.1171 -0.1171 0.9931 1773.2347 -35.4278)">
			<stop  offset="6.799020e-02" style="stop-color:#ECDFCF"/>
			<stop  offset="0.8039" style="stop-color:#E58057"/>
		</linearGradient>
		<polygon class="st68" points="919.6,166.3 906.6,183.5 894.6,181 909.2,163.5 		"/>
		<g>
			<defs>
				<path id="SVGID_59_" d="M870.1,290.6c-2.6-37.1-5-58.6,4.7-93.2c3.2-11.4,11.5-18.7,23.6-21.5l4.3,2.9c8,8.7,9,13.8,13.7,22.7
					c4.2,7.9,11.5,23.7,10.9,26.2c-0.7,2.8-1.7,7.9-10.3,9.4c-6.4,19-7.2,27.7,1.1,50.1L870.1,290.6z"/>
			</defs>
			<use xlink:href="#SVGID_59_"  style="overflow:visible;fill:#E5E5E5;"/>
			<clipPath id="SVGID_60_">
				<use xlink:href="#SVGID_59_"  style="overflow:visible;"/>
			</clipPath>
			<g class="st69">
				<polygon class="st70" points="913.7,278.3 926.5,288.3 927.2,167.7 914.3,167.7 				"/>
				<polygon class="st70" points="880.9,279.2 893.7,279.2 893.5,170.9 880.7,170.9 				"/>
				<polygon class="st70" points="848.7,278.9 860.8,278.6 861.9,180.9 849.1,180.9 				"/>
				<polygon class="st70" points="851.7,275.2 851.7,278 926.5,288.3 926.5,275.5 				"/>
				
					<rect x="880.3" y="208.9" transform="matrix(4.564702e-03 -1 1 4.564702e-03 633.7268 1134.4532)" class="st70" width="12.8" height="79.9"/>
				
					<rect x="881.2" y="176.8" transform="matrix(4.566031e-03 -1 1 4.566031e-03 667.4328 1102.6473)" class="st70" width="12.8" height="78.5"/>
				
					<rect x="881.2" y="146.5" transform="matrix(4.566137e-03 -1 1 4.566137e-03 697.7873 1072.4309)" class="st70" width="12.8" height="78.5"/>
			</g>
		</g>
		
			<linearGradient id="SVGID_61_" gradientUnits="userSpaceOnUse" x1="1466.6851" y1="183.4514" x2="1542.9183" y2="254.9879" gradientTransform="matrix(-1 0 0 1 2439.4944 0)">
			<stop  offset="6.799020e-02" style="stop-color:#ECDFCF"/>
			<stop  offset="0.8039" style="stop-color:#E58057"/>
		</linearGradient>
		<path class="st71" d="M890.2,185.9c7.1-1.2,13.8,3.4,14.9,10.2l3.4,57.5l58.5-7.2c2.4-2.7,7.7-5.2,7.7-5.2s8.1-6.7,8.3-4.4
			c0.2,2.4-5.8,6.5-5.1,8.3c0.7,1.8,4.3-0.5,7.2-2.9c2.9-2.4,8.8-7.6,8.8-3.8c0,1-4.1,7.9-7.5,10.4c-3.5,2.5-9.8,5.3-14.6,5.6
			c-0.7,0-1.3,0-1.8,0c-13.2,4.2-39.1,11.7-52.3,15.5c-3.1,0.9-12.6,3.4-12.6,3.4c-7.1,1.2-13.8-1.4-14.9-8.2l-1.3-8.1l-9.4-56.7
			C878.3,193.5,883.1,187.1,890.2,185.9z"/>
		<g>
			<g>
				<path class="st72" d="M941.3,375.7l-50.7,16.4c-3.2,1.7-5,1.4-5.6-2.2c-3-16.6-12.7-58.1-16.2-64.9c-7.2-13.8,0.6-45.5,0.6-45.5
					l44.4-5.1C913.7,274.6,921.1,290.6,941.3,375.7z"/>
			</g>
		</g>
		<g>
			<g>
				<defs>
					<filter id="Adobe_OpacityMaskFilter" filterUnits="userSpaceOnUse" x="865.7" y="274.6" width="75.6" height="118.6">
						<feFlood  style="flood-color:white;flood-opacity:1" result="back"/>
						<feBlend  in="SourceGraphic" in2="back" mode="normal"/>
					</filter>
				</defs>
				<mask maskUnits="userSpaceOnUse" x="865.7" y="274.6" width="75.6" height="118.6" id="SVGID_62_">
					<g class="st73">
						<defs>
							<filter id="Adobe_OpacityMaskFilter_1_" filterUnits="userSpaceOnUse" x="865.7" y="274.6" width="75.6" height="118.6">
								<feFlood  style="flood-color:white;flood-opacity:1" result="back"/>
								<feBlend  in="SourceGraphic" in2="back" mode="normal"/>
							</filter>
						</defs>
						<mask maskUnits="userSpaceOnUse" x="865.7" y="274.6" width="75.6" height="118.6" id="SVGID_62_">
							<g class="st74">
							</g>
						</mask>
						
							<linearGradient id="SVGID_63_" gradientUnits="userSpaceOnUse" x1="1498.1888" y1="333.8588" x2="1573.8132" y2="333.8588" gradientTransform="matrix(-1 0 0 1 2439.4944 0)">
							<stop  offset="0" style="stop-color:#000000"/>
							<stop  offset="8.545493e-02" style="stop-color:#0A0A0A"/>
							<stop  offset="0.2325" style="stop-color:#262626"/>
							<stop  offset="0.4235" style="stop-color:#535353"/>
							<stop  offset="0.651" style="stop-color:#929292"/>
							<stop  offset="0.9066" style="stop-color:#E0E0E0"/>
							<stop  offset="1" style="stop-color:#FFFFFF"/>
						</linearGradient>
						<path class="st75" d="M941.3,375.7l-50.7,16.4c-3.2,1.7-5,1.4-5.6-2.2c-3-16.6-12.7-58.1-16.2-64.9
							c-7.2-13.8,0.6-45.5,0.6-45.5l44.4-5.1C913.7,274.6,921.1,290.6,941.3,375.7z"/>
					</g>
				</mask>
				
					<linearGradient id="SVGID_64_" gradientUnits="userSpaceOnUse" x1="1498.1888" y1="333.8588" x2="1573.8132" y2="333.8588" gradientTransform="matrix(-1 0 0 1 2439.4944 0)">
					<stop  offset="0" style="stop-color:#FFFFFF"/>
					<stop  offset="0.2157" style="stop-color:#F5F6F7"/>
					<stop  offset="0.5865" style="stop-color:#D9DCE1"/>
					<stop  offset="1" style="stop-color:#B3B9C2"/>
				</linearGradient>
				<path class="st76" d="M941.3,375.7l-50.7,16.4c-3.2,1.7-5,1.4-5.6-2.2c-3-16.6-12.7-58.1-16.2-64.9c-7.2-13.8,0.6-45.5,0.6-45.5
					l44.4-5.1C913.7,274.6,921.1,290.6,941.3,375.7z"/>
			</g>
		</g>
		
			<linearGradient id="SVGID_65_" gradientUnits="userSpaceOnUse" x1="-820.3494" y1="310.2272" x2="-833.3678" y2="281.8656" gradientTransform="matrix(0.9931 0.1171 -0.1171 0.9931 1773.2347 -35.4278)">
			<stop  offset="6.799020e-02" style="stop-color:#ECDFCF"/>
			<stop  offset="0.8039" style="stop-color:#E58057"/>
		</linearGradient>
		<circle class="st77" cx="915.8" cy="156.7" r="17.9"/>
		<path class="st78" d="M933.3,143.7c1.1,0.9,1.2,2.6,0.3,3.6c-2.6,3.1-10.1,10.7-20.8,10.6c-12.5-0.2-2.1,13.6-3.4,20
			c-2.3,11.4-15.7,2.4-21.5,8.4c-4.6,4.7-1.3,16.4-10,14.9c-7.9-1.3-10.2-4.8-12.4-9.3c-3.2-6.5-0.8-14.8,4-20.2
			c9-10.4,30.9-31.3,34.1-32.8C907.2,137.2,928,139,933.3,143.7z"/>
		<path class="st79" d="M910.4,161.9c-0.1,0.8-0.8,1.3-1.5,1.2c-0.8-0.1-1.3-0.8-1.2-1.5c0.1-0.8,0.8-1.3,1.5-1.2
			C909.9,160.5,910.4,161.1,910.4,161.9z"/>
		<polygon class="st79" points="902.6,172.2 908.9,162.4 912.8,173.4 		"/>
	</g>
	
		<linearGradient id="SVGID_66_" gradientUnits="userSpaceOnUse" x1="347.5504" y1="134.215" x2="337.1716" y2="132.9912" gradientTransform="matrix(1 0 0 1 561.1333 0)">
		<stop  offset="2.905770e-02" style="stop-color:#884C59"/>
		<stop  offset="0.124" style="stop-color:#6D3C4D"/>
		<stop  offset="0.2757" style="stop-color:#47263D"/>
		<stop  offset="0.4162" style="stop-color:#2B1631"/>
		<stop  offset="0.5401" style="stop-color:#1B0C2A"/>
		<stop  offset="0.6341" style="stop-color:#150927"/>
		<stop  offset="0.9464" style="stop-color:#000000"/>
	</linearGradient>
	<path class="st80" d="M908.7,133.6c0,2.9-2.3,5.2-5.2,5.2s-5.2-2.3-5.2-5.2c0-2.9,2.3-5.2,5.2-5.2S908.7,130.7,908.7,133.6z"/>
</g>
<g id="guy_1_">
	<g>
		<g>
			
				<linearGradient id="SVGID_67_" gradientUnits="userSpaceOnUse" x1="-219.2829" y1="251.6995" x2="-158.9636" y2="271.8059" gradientTransform="matrix(1 0 0 1 250.6441 0)">
				<stop  offset="6.799020e-02" style="stop-color:#ECDFCF"/>
				<stop  offset="0.8039" style="stop-color:#E58057"/>
			</linearGradient>
			<path class="st81" d="M47.8,251.6c-1.5-1.4-4.4-3.9-5.1-4.6c-1-0.9-9-2.6-9.8-2.7c-1.7-0.4-12-0.1-11.2,1
				c0.5,0.7,8.7,2.2,8.7,2.2l1.6,0.5c0.1,0,0.4,0,0.7,0c0.1,1.6,0.3,2.3,0.3,2.3s-3.3-0.6-4.5-0.4c-1,0.1-2.4,1.8-1.2,2.1
				c0,0,2.8,0.7,4.1,1c0.8,0.2,2.1,1.8,2.8,2.3l1.5,0.7c1.6,0.7,7.1,1.4,7.1,1.4l58.1,28.2l1.7-20.5L47.8,251.6z"/>
			<g>
				
					<linearGradient id="SVGID_68_" gradientUnits="userSpaceOnUse" x1="-189.2375" y1="534.8476" x2="-189.2375" y2="499.0034" gradientTransform="matrix(1 0 0 1 250.6441 0)">
					<stop  offset="6.799020e-02" style="stop-color:#ECDFCF"/>
					<stop  offset="0.8039" style="stop-color:#E58057"/>
				</linearGradient>
				<path class="st82" d="M79,499.9l-1.7,23.5l1.9,11.5c0.3,2-1,3.8-2.9,3.9c-8.9,0.3-31.6,0.9-32.2-0.1c-2.9-5,9.1-10.5,19.5-15
					c9.4-4.1-0.9-38.8-0.9-38.8L79,499.9z"/>
				<path class="st83" d="M83.3,408.6c1.2,9,1.3,66.7-0.5,96H61.9c-3.9-31.4-4.8-83.5-6-92.3c0-0.1,0-0.2,0-0.3
					c-6.4-30.6-0.9-90.1-0.6-102.2c0.3-16.4,10.1-29.4,21.8-29.1c11.7,0.3,20.9,13.8,20.6,30.1C97.5,321.1,82.8,404.4,83.3,408.6z"
					/>
				
					<linearGradient id="SVGID_69_" gradientUnits="userSpaceOnUse" x1="-141.6831" y1="534.8476" x2="-141.6831" y2="499.0034" gradientTransform="matrix(1 0 0 1 250.6441 0)">
					<stop  offset="6.799020e-02" style="stop-color:#ECDFCF"/>
					<stop  offset="0.8039" style="stop-color:#E58057"/>
				</linearGradient>
				<path class="st84" d="M126,499.9l-1.2,23.5l1.9,11.5c0.3,2-1,3.8-2.9,3.9c-8.9,0.3-31.6,0.9-32.2-0.1
					c-2.9-5,10.1-10.5,19.5-14.4c9.5-4-4-39.4-4-39.4L126,499.9z"/>
				<path class="st85" d="M115.7,408.6c1.2,9,11.7,62.8,11.9,96h-18.8c-5.7-28.4-17.6-83.5-18.7-92.3c0-0.1,0-0.2,0-0.3
					c-6.4-30.6-12.1-90.5-11.8-102.5c0.3-16.4,12.7-29,24.4-28.7c11.7,0.3,18.4,13.4,18.1,29.7C120.6,320.7,115.2,404.4,115.7,408.6
					z"/>
			</g>
			
				<linearGradient id="SVGID_70_" gradientUnits="userSpaceOnUse" x1="-116.9563" y1="204.3215" x2="-88.8094" y2="204.3215" gradientTransform="matrix(1 0 0 1 171.7421 0)">
				<stop  offset="2.905770e-02" style="stop-color:#884C59"/>
				<stop  offset="0.2484" style="stop-color:#6D3452"/>
				<stop  offset="0.5192" style="stop-color:#511D4B"/>
				<stop  offset="0.759" style="stop-color:#410E47"/>
				<stop  offset="0.9411" style="stop-color:#3B0945"/>
			</linearGradient>
			<path class="st86" d="M58.8,192.6c0.6-7.3,6.1-12.3,12.9-11.7c6.8,0.6,11.8,7.1,11.2,14.4c-0.5,6.9-1.4,12.7-2.5,18.9
				c-0.8,4.1-0.9,9.5-2,13.6c-2.4-1.2-19-1.9-23.6-1.6c0,0,2.5-25.9,3.6-31.7C58.5,194,58.8,192.6,58.8,192.6z"/>
			
				<linearGradient id="SVGID_71_" gradientUnits="userSpaceOnUse" x1="-195.0017" y1="246.5578" x2="-97.1953" y2="253.35" gradientTransform="matrix(1 0 0 1 250.6441 0)">
				<stop  offset="2.905770e-02" style="stop-color:#884C59"/>
				<stop  offset="0.2484" style="stop-color:#6D3452"/>
				<stop  offset="0.5192" style="stop-color:#511D4B"/>
				<stop  offset="0.759" style="stop-color:#410E47"/>
				<stop  offset="0.9411" style="stop-color:#3B0945"/>
			</linearGradient>
			<path class="st87" d="M129.8,195.5c-0.2-6.4-4.4-11.7-12.9-15.4c-2.2-0.9-9.2-1.8-9.2-1.8l-28.4,1.5h-6.8
				c-6.2,0-12.9,7.5-13.5,13.8c-1.1,13.4-0.5,30.9,0.3,54.5c0.9,27.9-5.5,57.7-4.2,63.4c12.7,12.1,66.7,9.9,66.7,9.9
				c0.6-14.1-2-28.8-3.7-55.2C116.1,237.1,130.3,212.2,129.8,195.5z M77.6,235.8C77.5,235.8,77.5,235.7,77.6,235.8
				C77.6,235.7,77.6,235.8,77.6,235.8z"/>
			
				<linearGradient id="SVGID_72_" gradientUnits="userSpaceOnUse" x1="-236.0003" y1="249.8172" x2="-219.4101" y2="244.5361" gradientTransform="matrix(1 0 0 1 250.6441 0)">
				<stop  offset="6.799020e-02" style="stop-color:#E6E7E8"/>
				<stop  offset="0.8039" style="stop-color:#6D6E71"/>
			</linearGradient>
			<path class="st88" d="M35.9,273.7l-14.6-7.3c-1.2-0.6-2.1-1.7-2.4-3.1L8.4,223c-0.4-1.7,1.1-3.1,2.5-2.5l12.4,5.3
				c1.5,0.6,2.6,2,3,3.6l5.6,21.8l1.4,5.6l1,4.1c-1.4,0.3-4.3-1.6-6.8-3.5c-3.2-2.5-9.5-7.9-9.4-3.6c0,1.2,4.7,8.5,8.4,11.1
				c2.5,1.7,6.2,3.4,9.9,4.4l0.8,3.2C37.6,273.4,36.7,274.1,35.9,273.7z"/>
			
				<linearGradient id="SVGID_73_" gradientUnits="userSpaceOnUse" x1="-232.4142" y1="260.6905" x2="-214.1346" y2="260.6905" gradientTransform="matrix(1 0 0 1 250.6441 0)">
				<stop  offset="6.799020e-02" style="stop-color:#BF0909"/>
				<stop  offset="0.8008" style="stop-color:#E94E1B"/>
			</linearGradient>
			<path class="st89" d="M36.5,269.2c-3.7-1-7.4-2.7-9.9-4.4c-3.7-2.5-8.4-9.9-8.4-11.1c-0.1-4.3,6.2,1.2,9.4,3.6
				c2.5,1.9,5.4,3.8,6.8,3.5L36.5,269.2z"/>
			<g>
				
					<linearGradient id="SVGID_74_" gradientUnits="userSpaceOnUse" x1="2544.5222" y1="192.9301" x2="2549.2949" y2="166.6811" gradientTransform="matrix(-1 0 0 1 2637.9395 0)">
					<stop  offset="6.799020e-02" style="stop-color:#ECDFCF"/>
					<stop  offset="0.8039" style="stop-color:#E58057"/>
				</linearGradient>
				<path class="st90" d="M87.2,187.7L87.2,187.7c0,0,11.7-5,11.4-10.9l-1-22.3L80,156.4L79.4,177C79.3,182.8,87.2,187.7,87.2,187.7
					z"/>
			</g>
			<g id="c65_sport_shoes_4_">
				<path class="st91" d="M87.4,541.2v-3.3c0-0.2,0.4-0.4,0.9-0.4l40.5-0.6c0.5,0,1,0.2,1,0.4v3.9c0,0.2-0.4,0.4-1,0.4H88.3
					C87.8,541.6,87.4,541.5,87.4,541.2z"/>
				
					<linearGradient id="SVGID_75_" gradientUnits="userSpaceOnUse" x1="-164.08" y1="528.3619" x2="-121.1021" y2="528.3619" gradientTransform="matrix(1 0 0 1 250.6441 0)">
					<stop  offset="0" style="stop-color:#597F97"/>
					<stop  offset="1" style="stop-color:#395278"/>
				</linearGradient>
				<path class="st92" d="M105,537.7h-2.7l-2.1,0H87.7c0,0-3.4-4.4,1.6-5.7c0,0,16-1.9,23.2-12.1c0,0,3.4-4.1,0.6,5.8
					c0,0-0.4,7.2,7.1,3.6c0,0,2.6-1,4.9-7.1c0,0,1.1-2.5,2.9-2c0.7,0.2,1.5,1.1,1.6,4v1.3v2.1v9.5l-16.9,0.3L105,537.7z"/>
			</g>
			<g id="c65_sport_shoes_3_">
				<path class="st91" d="M39.4,539.9v-3.3c0-0.2,0.4-0.4,0.9-0.4l40.5-0.6c0.5,0,1,0.2,1,0.4v3.9c0,0.2-0.4,0.4-1,0.4H40.3
					C39.8,540.3,39.4,540.1,39.4,539.9z"/>
				
					<linearGradient id="SVGID_76_" gradientUnits="userSpaceOnUse" x1="-212.0714" y1="527.0149" x2="-169.0935" y2="527.0149" gradientTransform="matrix(1 0 0 1 250.6441 0)">
					<stop  offset="0" style="stop-color:#597F97"/>
					<stop  offset="1" style="stop-color:#395278"/>
				</linearGradient>
				<path class="st93" d="M57,536.3h-2.7l-2.1,0H39.7c0,0-3.4-4.4,1.6-5.7c0,0,16-1.9,23.2-12.1c0,0,3.4-4.1,0.6,5.8
					c0,0-0.4,7.2,7.1,3.6c0,0,2.6-1,4.9-7.1c0,0,1.1-2.5,2.9-2c0.7,0.2,1.5,1.1,1.6,4v1.3v2.1v9.5L64.6,536L57,536.3z"/>
			</g>
			
				<linearGradient id="SVGID_77_" gradientUnits="userSpaceOnUse" x1="-118.356" y1="233.6145" x2="-224.6747" y2="256.1291" gradientTransform="matrix(1 0 0 1 250.6441 0)">
				<stop  offset="6.799020e-02" style="stop-color:#ECDFCF"/>
				<stop  offset="0.8039" style="stop-color:#E58057"/>
			</linearGradient>
			<path class="st94" d="M133.1,210.9l-5.3,56.4l-0.9,9.2c-0.7,7.7-7.5,9.6-14.8,8.8c0,0-10-2.2-13.3-3c-13.9-3.4-41-8.6-54.9-12.4
				c-0.5,0.1-1.2,0.2-1.9,0.2c-1.7,0-3.6-0.3-5.5-0.8c-3.7-1-7.4-2.7-9.9-4.4c-3.7-2.5-8.4-9.9-8.4-11.1c-0.1-4.3,6.2,1.2,9.4,3.6
				c2.5,1.9,5.4,3.8,6.8,3.5c0.4-0.1,0.7-0.3,0.8-0.8c0.3-0.9-0.7-2.1-1.8-3.4l-1.4-5.6c2.6,1.3,6.3,4.2,6.3,4.2s5.6,2.4,8.2,5.2
				l60.8,2.7l-0.1-63.2c0.7-7.7,7.3-13.2,14.7-12.4C129.2,188.7,133.8,203.2,133.1,210.9z"/>
			<g>
				
					<linearGradient id="SVGID_78_" gradientUnits="userSpaceOnUse" x1="-144.5689" y1="206.1831" x2="-115.1077" y2="206.1831" gradientTransform="matrix(1 0 0 1 250.6441 0)">
					<stop  offset="2.905770e-02" style="stop-color:#884C59"/>
					<stop  offset="0.2484" style="stop-color:#6D3452"/>
					<stop  offset="0.5192" style="stop-color:#511D4B"/>
					<stop  offset="0.759" style="stop-color:#410E47"/>
					<stop  offset="0.9411" style="stop-color:#3B0945"/>
				</linearGradient>
				<path class="st95" d="M106.6,229.4c-0.4-12-0.5-31.8-0.5-31.8s-1.4-8.2,8.5-13.8c7.8-4.4,14.2,3.6,14.2,3.6
					c0.9,1.1,7.8,14.7,6.6,40.1C135.4,227.4,106.7,231.4,106.6,229.4z"/>
			</g>
		</g>
		<g>
			
				<linearGradient id="SVGID_79_" gradientUnits="userSpaceOnUse" x1="-1304.7971" y1="149.0001" x2="-1309.7358" y2="121.4842" gradientTransform="matrix(-0.9461 0.3238 0.3238 0.9461 -1191.5007 453.3351)">
				<stop  offset="6.799020e-02" style="stop-color:#EADFCF"/>
				<stop  offset="0.8039" style="stop-color:#E58057"/>
			</linearGradient>
			<path class="st96" d="M81.1,138.2c8.5-3.2,17.8,1.8,20.7,11c0.1,0.3,0.2,0.5,0.2,0.8c2.2-0.2,4.4,1.2,5.1,3.7
				c0.9,2.8-0.5,5.9-3.1,6.9c-0.8,0.3-1.6,0.4-2.3,0.2c-1.6,4.9-5.2,9-10.1,10.8c-8.5,3.2-17.8-1.8-20.7-11
				C68,151.4,72.6,141.3,81.1,138.2z"/>
			<path class="st78" d="M68.5,133c0,0,20-1.7,26.3-2c3.2-0.1,6.1,1,7.2,3.4c1,2.3,2.7,10.9,1.7,15.5c-0.4,0-0.7,0-1.1,0.1
				c-1.2,0.2-2.3,1-3,1.9c-1.1-2.2-1.2-7.1-10.7-7.1c-3.4,2-6.7,2.9-8.3,3.4c-4.5,1.5-10.3-0.1-11.6-4.6
				C67.6,139.2,68.5,133,68.5,133z"/>
		</g>
	</g>
	<g>
		<path class="st97" d="M84.9,219c0,1.2,0.9,2.3,2.1,2.3c1.1,0,2.1-1,2.1-2.3c0-1.2-0.9-2.3-2.1-2.3C85.8,216.8,84.9,217.8,84.9,219
			z"/>
		<path class="st97" d="M127.7,206.2c0,1.2,0.9,2.3,2.1,2.3c1.1,0,2.1-1,2.1-2.3c0-1.2-0.9-2.3-2.1-2.3
			C128.6,203.9,127.7,204.9,127.7,206.2z"/>
		<path class="st97" d="M110.6,214.5c0,1.2,0.9,2.3,2.1,2.3c1.1,0,2.1-1,2.1-2.3c0-1.2-0.9-2.3-2.1-2.3
			C111.5,212.3,110.6,213.3,110.6,214.5z"/>
		<path class="st97" d="M68,200.3c0,1.2,0.9,2.3,2.1,2.3c1.1,0,2.1-1,2.1-2.3s-0.9-2.3-2.1-2.3C68.9,198,68,199,68,200.3z"/>
		<path class="st97" d="M96.9,241.8c0,1.2,0.9,2.3,2.1,2.3c1.1,0,2.1-1,2.1-2.3c0-1.2-0.9-2.3-2.1-2.3
			C97.8,239.6,96.9,240.6,96.9,241.8z"/>
		<path class="st97" d="M61.8,296.5c0,1.2,0.9,2.3,2.1,2.3c1.1,0,2.1-1,2.1-2.3c0-1.2-0.9-2.3-2.1-2.3
			C62.7,294.3,61.8,295.3,61.8,296.5z"/>
		<ellipse class="st97" cx="82.3" cy="259.1" rx="2.1" ry="2.3"/>
		<path class="st97" d="M65.9,240.6c0,1.2,0.9,2.3,2.1,2.3c1.1,0,2.1-1,2.1-2.3c0-1.2-0.9-2.3-2.1-2.3
			C66.9,238.4,65.9,239.4,65.9,240.6z"/>
		<path class="st97" d="M92.3,311.2c0,1.2,0.9,2.3,2.1,2.3c1.1,0,2.1-1,2.1-2.3c0-1.2-0.9-2.3-2.1-2.3C93.3,309,92.3,310,92.3,311.2
			z"/>
		<path class="st97" d="M105.3,292c0,1.2,0.9,2.3,2.1,2.3c1.1,0,2.1-1,2.1-2.3c0-1.2-0.9-2.3-2.1-2.3
			C106.3,289.8,105.3,290.8,105.3,292z"/>
		<ellipse class="st97" cx="99" cy="193" rx="2.1" ry="2.3"/>
	</g>
</g>
<g>
	<g>
		<line class="st98" x1="373.4" y1="153.1" x2="373.4" y2="212.4"/>
		<line class="st98" x1="371.3" y1="155.2" x2="431" y2="155.2"/>
	</g>
	<g>
		<line class="st98" x1="626.5" y1="155.2" x2="567.1" y2="155.2"/>
		<line class="st98" x1="624.4" y1="153.1" x2="624.4" y2="212.7"/>
	</g>
	<g>
		<line class="st98" x1="371.3" y1="406.1" x2="430.7" y2="406.1"/>
		<line class="st98" x1="373.4" y1="408.2" x2="373.4" y2="348.5"/>
	</g>
	<g>
		<line class="st98" x1="624.4" y1="408.2" x2="624.4" y2="348.9"/>
		<line class="st98" x1="626.5" y1="406.1" x2="566.8" y2="406.1"/>
	</g>
</g>
<linearGradient id="SVGID_80_" gradientUnits="userSpaceOnUse" x1="826.2369" y1="59.4351" x2="831.5401" y2="71.088">
	<stop  offset="0" style="stop-color:#098ABC"/>
	<stop  offset="6.560563e-02" style="stop-color:#0985B7"/>
	<stop  offset="1" style="stop-color:#094072"/>
</linearGradient>
<path class="st99" d="M836.2,76.5c0.4,0,0.8,0,1.1,0l-10.6-22.3c0,0,1.1,10.9,4,22.3H836.2z"/>
<linearGradient id="SVGID_81_" gradientUnits="userSpaceOnUse" x1="828.1982" y1="68.2103" x2="837.1088" y2="66.4282">
	<stop  offset="0" style="stop-color:#098ABC"/>
	<stop  offset="6.560563e-02" style="stop-color:#0985B7"/>
	<stop  offset="1" style="stop-color:#094072"/>
</linearGradient>
<path class="st100" d="M846.6,78.8c-7.3-12.7-19.9-24.6-19.9-24.6l10.6,22.3C840.6,76.7,843.7,77.5,846.6,78.8z"/>
<path class="st101" d="M836.2,484.7H161.6c-14.1,0-25.6-11.5-25.6-25.6v-357c0-14.1,11.5-25.6,25.6-25.6h674.5
	c14.1,0,25.6,11.5,25.6,25.6v357C861.7,473.2,850.2,484.7,836.2,484.7z"/>
</svg>
